\relax 
\@writefile{toc}{\contentsline {section}{\numberline {1} Introduction}{1}}
\newlabel{sec:intro}{{1}{1}}
\@writefile{toc}{\contentsline {section}{\numberline {2} Background and related work}{2}}
\newlabel{sec:background and related work}{{2}{2}}
\@writefile{toc}{\contentsline {section}{\numberline {3} PAGE TITLE SECTION}{2}}
\newlabel{sec:pagestyle}{{3}{2}}
